{"meta":{"count":100,"pageCount":1240,"totalCount":123992,"next":"/api/wallets?page=2&limit=100","previous":null,"self":"/api/wallets?page=1&limit=100","first":"/api/wallets?page=1&limit=100","last":"/api/wallets?page=1240&limit=100"},"data":[{"address":"AUDud8tvyVZa67p3QY7XPRUTjRGnWQQ9Xv","publicKey":"021d03bace0687a1a5e797f884b13fb46f817ec32de1374a7f223f24404401d220","balance":"1924102334890976","isDelegate":false},{"address":"AdS7WvzqusoP759qRo6HDmUz2L34u4fMHz","publicKey":"03e7635481b035149829ef74f972e69eca75363bc96e75be57579b0e6fb3f22192","balance":"938834981506130","isDelegate":false},{"address":"AdTyTzaXPtj1J1DzTgVksa9NYdUuXCRbm1","publicKey":"02d4c5a7206d8298ef84a79b4c21a73ad5ae460cfff964f660f517960bb834040d","balance":"875001440401317","isDelegate":false},{"address":"AUexKjGtgsSpVzPLs6jNMM6vJ6znEVTQWK","publicKey":"02ff171adaef486b7db9fc160b28433d20cf43163d56fd28fee72145f0d5219a4b","balance":"738462521770627","isDelegate":false},{"address":"AdzbhuDTyhnfAqepZzVcVsgd1Ym6FgETuW","balance":"558903388872644","isDelegate":false},{"address":"Aakg29vVhQhJ5nrsAHysTUqkTBVfmgBSXU","publicKey":"0394e9f4d4eb47e8cbfda6e0d1a4082973ae178e3a60662ac84591c39d06e059f5","balance":"192787112464071","isDelegate":false},{"address":"AXuZJufLH16vJ5ZfH3y2m5fsZiwKuPvbEX","publicKey":"027efb6211796b0e46b15b23621f73af65281b72c7460e0c925941478e6dd7fc30","secondPublicKey":"024e861ca83215d9d0b1a9202f6281d983e1600d96590a8858adcbb8997f7b7c20","balance":"138761227497438","isDelegate":false,"vote":"03cefbfa0c1c853084591b62a9aad0116029eaebdc27c2e3b811b1b0aebb928fc6"},{"address":"AQa2c4UwnAUKWrAhCpRqUTp6ug7HQQTxYi","publicKey":"03626deddb8200bba47320a8e341ae8a728e760f7bdfd7c31b602370d6eefd0587","balance":"125660338171984","isDelegate":false,"vote":"03a28aeb6b15e792f1753caae663a52f15ab642ae7cdee6fcdbc5416ffc0f4f702"},{"address":"AbxjfLMXA4YEvFwnbs8EWefWVcJX7X7xzf","publicKey":"033687dbc783f2ad86085c726026fdc854366d57aabf670ebda6dafceacd01123b","balance":"100088997841922","isDelegate":false},{"address":"AGnT6UCAnGJhgdqNCjRJ4LAyrt6QXATkeQ","publicKey":"02b7e1e8604f573220bfb38a5f1364e8d513eca5f4141800d91346e1cd8098ec34","balance":"97519990000001","isDelegate":false,"vote":"034682a4c4d2c8c0bc5f966dd422a83d2b433e212ef1f334f82cc3fe4676240933"},{"address":"AYCTHSZionfGoQsRnv5gECEuFWcZXS38gs","publicKey":"0359707719b3504eb1ed2980eba034fd4fdf68cfc037756e9aad705d755a45a678","balance":"65046642076926","isDelegate":false},{"address":"AGMikmMjsDMfuxG7MrG6DCV3gh326XEam9","publicKey":"02a53ca0056cfd7fcf6fbf102640a538e2549f153e4eaab93cc1ca632c63805d0b","secondPublicKey":"03869bc7acb44331d645d1d78204fb73e7afc5cd64137e4a9f3f8187c705017e83","balance":"62858709118981","isDelegate":false,"vote":"031c110968941f29c76f3752d5752d5541cfe65f23f5d7f9115d2f4eb194f41c47"},{"address":"AbCLd877VKjQazconHNZRHpBYYogVc7WW5","publicKey":"02d7a6965d257b12bb370091c84a5035c355207a789db7b51db16f41127d6877c8","balance":"60009010000002","isDelegate":false,"vote":"0217ff1ec656f2354a899bde097bb3131a9730fe491bb87dedb96489120be9154f"},{"address":"AWmdqUPaFkfxySxPHm51pfYp2vpdnq5mvE","publicKey":"02f83268bda7ba236a2fb953f970b396fc5f274cc09d0c5b7d28db5a8c3559c119","balance":"54322860299866","isDelegate":false,"vote":"0371e0dabfd774b4f53fb9c5386a31ee4b3cb951529f18fdb5b8b7e21dbfb4b885"},{"address":"ATU2GzMcQrXoXAC8kwx9em38CPvrEtPoRF","publicKey":"03dcaee33378941db44c83c83b91f4cc5369ce4737439f00fccaa84ac06ad49ade","balance":"52427921670076","isDelegate":false,"vote":"03c28f0c9d56bb30976830e75cce59b908fa1d2489d30a7e8ad494573deae23c20"},{"address":"AZL2HR9XiM1DBsUXAAbhxvVeNbHy1JL45f","publicKey":"038a8b70d1357a59752980b093cf3d546437276d89cdd94406b5b4d9047979baf7","balance":"46232790489063","isDelegate":false,"vote":"024bd465c9671f6fa6d5b0c3f7debd10618c2b7089dbf71c109f4fe02d1a03dea7"},{"address":"ALN2sCpQg4B8NoBuUvR3Li4VG1fA2b19ZT","publicKey":"02d817d79be6d5c902f8abc1895057a05403d43a5a44c0c24fe2522c8302a93fe0","balance":"46151432969201","isDelegate":false,"vote":"023a6c7a5a3fcda0dca6297ecf27c49a08b122565a252289120af2849fbef4e472"},{"address":"ASQC5XSN3invBaGS2iJXoM4ukUpHyPLe4G","publicKey":"03a396174ba7eabfd462e5e7c0c872a0f8ebe03a37653645e0c30f84a856f364e5","balance":"43466267120361","isDelegate":false,"vote":"023a6c7a5a3fcda0dca6297ecf27c49a08b122565a252289120af2849fbef4e472"},{"address":"AccdZiztxfZy7nrzeQ9z9VSzatGMDbtCaj","publicKey":"02d2646f0409a2ee7d5aca487d68aff2a849aed4d1a0986a9e4506f9f998fe2387","balance":"42766655552583","isDelegate":false,"vote":"025687c1facbaf87b43a46cb78ddec6e4ddb115d1e5a91b53cef5a2c7305a47adc"},{"address":"AKWWXji6YBf5D2FPrP8dD4Kec3CuUrMCDW","publicKey":"03b9680a5e19024bc50cfe4d8afce53daf2d905360ac3c2ca2fd9e47c0e5092307","balance":"42536302918657","isDelegate":false,"vote":"0305147df6c772248ffc57d7ebc1c4294f03b6b5a27ebc6e1a09825e4ee5fb786f"},{"address":"ALhGypeFxgyM28u8usTe3cnRWvR9kK4GUK","publicKey":"034572f359571ee0ec2091ef832ca14a6a15ac2aacc4c1dc27e146049e1776cd4f","username":"vega","secondPublicKey":"031ab3fb26f48c266d8faf21b9eb3bc82c35c05e041f2091f0239180301af26bee","balance":"42486049717936","isDelegate":true,"vote":"024bd465c9671f6fa6d5b0c3f7debd10618c2b7089dbf71c109f4fe02d1a03dea7"},{"address":"AJTVzJhvwWrb1UHLep1TwF2kT5LgaTDwZi","publicKey":"031c660c85276df9457c041257723991aaad9e960618f57f6cd91601abebf6d775","username":"atreides_wannabe","secondPublicKey":"032340b445a19353823bdc83b5666ceea0717a48f301391b527625829eaa8deba1","balance":"40033463691759","isDelegate":true,"vote":"0217ff1ec656f2354a899bde097bb3131a9730fe491bb87dedb96489120be9154f"},{"address":"ANuaU5KKaVwVcYBfYcuiKgCRpvbYR1CY4M","publicKey":"0221b798106cfffedf9661d81b794f150dafe90f102d814579919fe3173f03f87f","balance":"39329883191624","isDelegate":false,"vote":"0344f455358055213235a21eff6deffa4d8ded38e43b9103e10184cc4c108ee81c"},{"address":"AZn1aLhXUNSpGpdmFuNPYsWHNEEPExnCuH","publicKey":"034b9a76064ddea29d21fc048068b6bf07674bb87174730a53da931d7225bd1540","balance":"38919830534721","isDelegate":false,"vote":"02902de3fcb257e9248e2ae668d2e314027f0ca05c1eb21e1c5817c7580014669f"},{"address":"ATrkBiUXGDKduaSjqez2Ar7T9rQW6cnaeu","publicKey":"03c6e98f9aff65c517c824c9b21b6e1bc053a19f81d95d4f76426b1f5e651e64db","balance":"34225657790346","isDelegate":false,"vote":"0305147df6c772248ffc57d7ebc1c4294f03b6b5a27ebc6e1a09825e4ee5fb786f"},{"address":"AVNd1GfvzMkxrAGMg4smHBvUFvtztLeCCQ","publicKey":"0365130826ade639c92854c882a8d5a3630301055bb40e3757e9f76aba91e27368","balance":"33143332978685","isDelegate":false,"vote":"02d93b3eb4eb98cbbc4317a355cfb4a2dde558c6d82816034d0e56e9d632c12bc4"},{"address":"AZbcptgqxhzEWVmNwwNgR1DEniq11T88xD","publicKey":"036d5302b11bbc56ab0c91863a217ef7bea5a84affbcb56c282858eca8ca734fc7","secondPublicKey":"02f00328af40afa9fb3545469871844652df3d9457a860d989a32821cc8043d049","balance":"32967392500101","isDelegate":false,"vote":"03cefbfa0c1c853084591b62a9aad0116029eaebdc27c2e3b811b1b0aebb928fc6"},{"address":"AJ7DBtEFr8q3L69PZzY1Z8rkypgTcYzgn4","publicKey":"0204cbb196f4595233ef6abe6bba4a73ae9e018bce61a4b03ff82478647751143b","balance":"32289936854458","isDelegate":false,"vote":"03c28f0c9d56bb30976830e75cce59b908fa1d2489d30a7e8ad494573deae23c20"},{"address":"AZNouHo8uSZdPYZsYPpA2He9U6iQTAzEfZ","publicKey":"026435caf6abeda076cb836c6898d35d8548d6acfa87159e0294144933ec5a74f0","balance":"30859481631999","isDelegate":false,"vote":"02902de3fcb257e9248e2ae668d2e314027f0ca05c1eb21e1c5817c7580014669f"},{"address":"AHUPYJj1mhkGkKYwAE83UKH4hawfrpNimM","publicKey":"02e12487b66f66c5865fb3f6a2a5a7c6cfc094f626ddbc0cc7ec2ca362dfe40683","balance":"30768854100020","isDelegate":false,"vote":"02bd74ba354e4533cbbb0d03076622c15917e2e1d65fe4c4c8294d6b4c57d667b4"},{"address":"ANoAA9GFDJNjkdpfVhgyYj54iCSRJgz5Gg","publicKey":"0334a50fcb9c4b58a6b2a774c9b3fd1830ea278ffe8f64aa662b46e8b605e72fa5","balance":"30693161717880","isDelegate":false,"vote":"03242784474bc911c482861d18d5974c2c79ed61f931982e1ce42e3e3994559e41"},{"address":"AG5uRBv487yNhQ8emuSkvVdDyAdMyt6rDB","publicKey":"020c1edd5f32f9810dafbb3b3362f79433e8303ed99716408500b61e21e7a49aa7","balance":"30379209066744","isDelegate":false,"vote":"023a6c7a5a3fcda0dca6297ecf27c49a08b122565a252289120af2849fbef4e472"},{"address":"AK1C5Fe8QUWfVaxzNwr4Uhy9uA9bJaPidk","publicKey":"02bbc2aae7d04077c2066fd0b4d2abff03540d9fb39950e028b31f03ddb4b8e990","balance":"30339052948317","isDelegate":false},{"address":"AVkMFhGz282MDQXzsY1KDrVtfSQbJi51k1","publicKey":"02ad8d1f0d9d8d6a1646e0a130cc6cce55e95dec334ff84329167879a154072521","username":"nomoredollar","secondPublicKey":"02cda0a19b5289ba696db3c74edc31fb32866236ce2154d0fd33fe11f1b3aad0f7","balance":"29975380392419","isDelegate":true,"vote":"02c0b645f19ab304d25aae3add139edd9f6ca9fd0d98e57a808100de0e93832181"},{"address":"AZcK6t1P9Z2ndiYvdVaS7srzYbTn5DHmck","publicKey":"0228c620d0b7c8da4994f17d57d44f12e9995285c5f97b8c65e402a564afbf0d29","balance":"28863869660300","isDelegate":false},{"address":"AXx7uAMEQGN5zYuCepn9sMog3MmjbfhcNx","publicKey":"03711572425a214ae60d444cdebc3db4c0d7858ded3e7fd052bdaf6d9ba9bceb65","balance":"28049980000000","isDelegate":false,"vote":"02bd74ba354e4533cbbb0d03076622c15917e2e1d65fe4c4c8294d6b4c57d667b4"},{"address":"AHexVNhThDLDE7iceTxxUhssVNjJ27KwBY","publicKey":"021278816616c340b0337c68ed74e407c083954839b61e64ab7f7fa8ebd9263cdf","secondPublicKey":"03cc15ea6f7071d172358f9085740ecaa93f428742b8ae6cb290ae90e2477ec76a","balance":"27800700660480","isDelegate":false,"vote":"02b54f00d9de5a3ace28913fe78a15afcfe242926e94d9b517d06d2705b261f992"},{"address":"ASNxTEnZVDNiMKR2pXnssrgKHwRYvGpS8d","publicKey":"02c80df419d9008fe4eb4cf6ca66e9158af7a988400b071dfa443b1da87acb1edf","secondPublicKey":"03e2d92283abde34b7edcfa116754f1ef4cb97f3d4e6bcf41723420f6c3ca0dc80","balance":"27041511168674","isDelegate":false,"vote":"028f9f37a1fbf95bfa5b302032806116b27fd74996df7bcd6188c982f75e894ca4"},{"address":"AXfHh85FnyCvfXueBuADKG8sPQqZK2XQPz","publicKey":"02065e1f03eca7d22017e8e56be6dc462b948e09d27979467aec86e4c8677e3ed6","balance":"26811142467128","isDelegate":false,"vote":"03242784474bc911c482861d18d5974c2c79ed61f931982e1ce42e3e3994559e41"},{"address":"ATgt8JY17dHMzriewb9SQiNdJhkU3jo1wn","publicKey":"029456d8ca12670000ea04725770241d1bafb154fba6ab094a077d355fa2675b94","balance":"26454080268680","isDelegate":false},{"address":"AcYuTuZ9cSzzUTJ1czdknJeZptYCBgQFns","publicKey":"03870a4b061985fff428466ef05c68905e4708608029dccc2a03fab7665442e175","balance":"26444455328534","isDelegate":false,"vote":"0257581c82d1931c4b0b2df9d658ecd303fcf2a6ea4ec291669ed06f44fb75c8fe"},{"address":"AMkhUneQgdebZbP1GEW5RLnV2qHjY3taH3","publicKey":"02b4d07271006824539ea424578d20d003de856cf5bdf44f266338381d45bd0f52","balance":"25885577551216","isDelegate":false,"vote":"03dff448e2fe490aff1665da1e217f39ac8b6715e5ecfdfec20bc150da70ef5153"},{"address":"ATL9kyo71wjPPXqvGMUD89t5RazmQfQMc6","publicKey":"03a4a2ca6fd5bda092177f02ce6672922c51391d843bf25560dbfccae2fa683771","balance":"25088687337728","isDelegate":false,"vote":"02bd74ba354e4533cbbb0d03076622c15917e2e1d65fe4c4c8294d6b4c57d667b4"},{"address":"AQtNgMHNM5dwq5bthFnkiYrC52274cszAW","publicKey":"022cf0d4524bae6f3d2a5ad7e9083a1b9b43f3a63f33f51605f165f3a89b34a4bf","balance":"25040647077416","isDelegate":false,"vote":"0273f311dce939562a92695583521b4782fdaf7c04f0a1d8643447adca76443111"},{"address":"AYHCFrrnT9s8vEprXQaAv9Z7m4vTfFxK3C","publicKey":"020bb88714493e45b9e65e6ce87faf36148b8f64117e9042415c41d041c5e443ae","balance":"24910718561493","isDelegate":false,"vote":"0386d5a3cd292ffaa9a3b73c556453326780e092015141efaed347c4c50c7886bb"},{"address":"AWnSACjVquxxxKjYiedPT3c15iENzoDX4L","publicKey":"02625aba34ede94db7eb1c177064e624052300a6da5207fdd4a65f55c62fc25d5c","balance":"24678222472869","isDelegate":false,"vote":"03dff448e2fe490aff1665da1e217f39ac8b6715e5ecfdfec20bc150da70ef5153"},{"address":"AHchW9xXpcF85P9MpsMBVv5WMcBrTEdAr9","publicKey":"0223507e2142bdfa7f25d381bff10502ed3d29e7fc0f114ceb0e38b0216021ae89","balance":"24659113396731","isDelegate":false,"vote":"03d768065bfd4dc8004e8cb37d092993617bcc09dc6d10931d57bff451f72d2b00"},{"address":"APYd2m4kh1y1ADgfDAjUbcjGUowWAQNuGe","publicKey":"03d0711d473afc2d0b3cd0c382df3d54410d3365fce283348f0d05c96d9c7c7f4e","balance":"24466076274175","isDelegate":false,"vote":"03242784474bc911c482861d18d5974c2c79ed61f931982e1ce42e3e3994559e41"},{"address":"AYH7q81c86bTyFnVSWcsRkBdFi8ZR1repC","publicKey":"020cba68b70d79f4abfacbe48450b17ef6e22cd601108db803cb8836cd8894e22a","balance":"24329304822508","isDelegate":false,"vote":"0257581c82d1931c4b0b2df9d658ecd303fcf2a6ea4ec291669ed06f44fb75c8fe"},{"address":"Ab6ZM6sWSYv3cEszdLDJxF6feZgy6etKYe","publicKey":"03e124237000411a36aa7f952ce98fd105556c74a8885029b3af3d6c4498d205b2","balance":"24159119675194","isDelegate":false,"vote":"03f25207238ef72cc3a0482af05a5296996da80c92dd0c1eb80e911281eedaf237"},{"address":"AJbmGnDAx9y91MQCDApyaqZhn6fBvYX9iJ","publicKey":"039aab9d87c271ea45aa16bfe2487e8534b8dc1ac742e124e9bf8afa0b8c648e02","balance":"24120947334010","isDelegate":false},{"address":"ANuxmgzH8sHM9XT5f88EiN8tsSG88vno3Q","publicKey":"034f4e87c61e1c0dc6cb50586bba9d3771bebcc91b398921e0868289065d898bfa","balance":"24050174083204","isDelegate":false,"vote":"03f25207238ef72cc3a0482af05a5296996da80c92dd0c1eb80e911281eedaf237"},{"address":"AdawBmuTYzjNgrYgDEbZVzPbYLvYnBin2Y","publicKey":"021bbfd0a7b7067182bb5e24c9772857872f45dd0c57474bf7e0b5b989a1d1a0ec","balance":"23980026806932","isDelegate":false,"vote":"031c110968941f29c76f3752d5752d5541cfe65f23f5d7f9115d2f4eb194f41c47"},{"address":"AaD8RiiyJ9Q7LaFWuaqP8CvTGxUGLTRWrW","publicKey":"03c575a94d75fc107bf96c1152aa6531b9eeee47fd088643a50b42314a6ffc41ba","balance":"23949379627621","isDelegate":false,"vote":"02b02cae6c53adcbbe2b88e3f21fff9e3ceb8c2f028fdfaecff9d393696eaa3d07"},{"address":"AJWbjhjziEytN3uLticCV3qPCm3VZquSLh","publicKey":"027713b4d899880628f36d9306076aa08a2eec39130845f41b8dc66055e4f38b77","balance":"23766123864823","isDelegate":false,"vote":"0257581c82d1931c4b0b2df9d658ecd303fcf2a6ea4ec291669ed06f44fb75c8fe"},{"address":"AVmCsqrgDAZU3MTujosUteWWVDV2Kie2qy","publicKey":"02f19b58430b41adb9b4597396a35cfb2553ff2801c518c704f128149638d68ff0","balance":"23658700000000","isDelegate":false,"vote":"02bd74ba354e4533cbbb0d03076622c15917e2e1d65fe4c4c8294d6b4c57d667b4"},{"address":"AVyiGH9nheqwEz3oyKcZsa8SDgLTxt3oAG","publicKey":"025b1f42c8ac87de6e8d57d300beee87acea45c3f89215c13389afb588fa7fb9fc","secondPublicKey":"028f80434ec6d7d1a3c3d921dad944fd1ac33cd8cdf4049049be954ae2e1898997","balance":"23629374700338","isDelegate":false,"vote":"03364c62f7c5a7948dcaacdc72bac595e8f6e79944e722d05c8346d68aa1331b4a"},{"address":"AVPXfegZnh4pFZVVtZDszKvj8UPZNECT9Z","publicKey":"0216dff00fe3576a0ef07b76f0be563cf2f47d32c949d45e179c11390c25ec31d4","balance":"23541395502674","isDelegate":false,"vote":"0257581c82d1931c4b0b2df9d658ecd303fcf2a6ea4ec291669ed06f44fb75c8fe"},{"address":"AJ5h678MvhRQuicr5NVJrbg4kygfsHgbd9","publicKey":"02f2c01e4caa47a3b771b53d554036b5b14adbb920fe198c0fd45bc2847c28db91","balance":"23540165075137","isDelegate":false,"vote":"026b87a3ad1c13adfc4256f5365f5e6251693a27b2293676db14690efce5acae6e"},{"address":"AdVBYmdBgULbXyjnVoDyULW5oh6pU5oWeo","publicKey":"035dbf1a63b5de304457f3f89fe4a777ad272c7f1b551a3976dc5a98f57d9b2a5b","balance":"23376697433969","isDelegate":false,"vote":"02fa6902e91e127d6d3410f6abc271a79ae24029079caa0db5819757e3c1c1c5a4"},{"address":"AdCphTbTtmBouY5wTen7MSzjy9fc84J9M3","balance":"23205200171282","isDelegate":false},{"address":"Aa6rEzbWfeNBYmxpFFJFWj2aNKbLXxnJQi","publicKey":"03e58c805fcb827b2d0d5c2e2e0ab17a65bea145b81135aaa828a7d06f18ba6b57","balance":"23123300000000","isDelegate":false,"vote":"02bd74ba354e4533cbbb0d03076622c15917e2e1d65fe4c4c8294d6b4c57d667b4"},{"address":"APbGaqj2uvMPJubKPP77QkcU6iA3NUoiJk","publicKey":"03414d773fd9df6540eada7594990b4eaabc791c161728349da6eb87260c2a84cd","balance":"22762608890286","isDelegate":false,"vote":"029d3235d0b5e22f65eb91f682b4e01e48c66aa079d739259ef1fdd13384282c2f"},{"address":"ATdBZKyBTq5Xc8cJqYjP9cWh5YFzAxC3Pw","publicKey":"027cc0101b9c1682b9389bdf3cc87a6f5e3b1198cd4539ca5f15496a556c0ad008","balance":"22731239132496","isDelegate":false,"vote":"025687c1facbaf87b43a46cb78ddec6e4ddb115d1e5a91b53cef5a2c7305a47adc"},{"address":"AbT7Mxbfb7F3WFwY5Go6CT3B51wH1ojaFg","publicKey":"0345166837a634f7acdd392d1a336654e935c64a99eb747204787998dfe1729a27","balance":"22651891054059","isDelegate":false,"vote":"035efcb832400cd0be4b6c434b322afcf9005e87d950b54a624aed3d6ffccb65b4"},{"address":"AcL1RoHZGzhpoKapacLGxCRP3SZcZqG1q3","publicKey":"03bfaeddb4a776aa9cba65cfe0f151ae338a1a6b619f4d16c20f74f48ebcb60379","balance":"22409390150818","isDelegate":false,"vote":"0273f311dce939562a92695583521b4782fdaf7c04f0a1d8643447adca76443111"},{"address":"AenZv77531H5t4gPdha6qWLhshb28V21UU","publicKey":"02e3974e747825985a4977a2d42f5560a600b0c1fb0121fa435bcf66b4bbe6a575","balance":"22136228882908","isDelegate":false,"vote":"03f25207238ef72cc3a0482af05a5296996da80c92dd0c1eb80e911281eedaf237"},{"address":"AbKmKUV72bon3VaV62kwAbg5JpKVd7BpYL","publicKey":"03314d3744120e0b17e246fcfecb894bd96da8a08a72906353920274fafb3eb393","balance":"21962396556676","isDelegate":false,"vote":"02d93b3eb4eb98cbbc4317a355cfb4a2dde558c6d82816034d0e56e9d632c12bc4"},{"address":"AL4c9KTfUk8uTSRZUNuVwz8NaR7SyRy6UH","publicKey":"029ea4995cc8114e938840ca1f0dcb592cb30c78ba75e00494fd5e6c0058212313","balance":"21805195082170","isDelegate":false,"vote":"02fa6902e91e127d6d3410f6abc271a79ae24029079caa0db5819757e3c1c1c5a4"},{"address":"AFrPtEmzu6wdVpa2CnRDEKGQQMWgq8nE9V","publicKey":"03933b36970c8d298ecaeb61e00215d9bed03f9f01cdd4523233c7297df7f71e37","balance":"21741586299075","isDelegate":false},{"address":"APpm6rfba7hu2vgowSzFcrTkecnUxbVrPu","publicKey":"02dc88a4b7d811d1f7ced788c8a748d5fe5e7a0dbda58bb81b7cc36e7da68733b7","secondPublicKey":"03777728c5f619c600268c3b3021f1d198c7b123e4c64a89adb00e5773778c7470","balance":"21695657273131","isDelegate":false,"vote":"0232b96d57ac27f9a99242bc886e433baa89f596d435153c9dae47222c0d1cecc3"},{"address":"AX2AzEbbvVj76sDgoUQETCVSjtHLvtchn9","publicKey":"02338f91b8a9981598afd2c49daa0a8e838098c113e9e0bea996d89270a2bd99b7","secondPublicKey":"0397a08f60bca8322762dd2e76ca278731bc63a2818d66d1cab58071ea11e06494","balance":"21361253815014","isDelegate":false,"vote":"034682a4c4d2c8c0bc5f966dd422a83d2b433e212ef1f334f82cc3fe4676240933"},{"address":"Af798gTZcmh9ebZQZwzFxnLE22FK9Po7Cx","publicKey":"03ec8625d307208742b6ea2490afa6cff9d779254c1c8ca93aa78100a89762e49d","balance":"20793695323489","isDelegate":false,"vote":"03f25207238ef72cc3a0482af05a5296996da80c92dd0c1eb80e911281eedaf237"},{"address":"AHu2R1dDa8Wx8G82uJHtJGU1yPardVPJnK","publicKey":"032efaa4089e3072c53907447e021ea53e3a31b70bcb63876ffe466bec5b18b92d","secondPublicKey":"0325d1fdc50752132f253d30f48049f507fa1141817c7a3bb2736c2ccb5624af73","balance":"20751673112127","isDelegate":false,"vote":"02b54f00d9de5a3ace28913fe78a15afcfe242926e94d9b517d06d2705b261f992"},{"address":"AUpnHLejYcfA3ZYKCJR3zkgbmtJ5rg8dfE","publicKey":"036346dbe29151e97989c1fbd90e7d97d88cfefd34982644beed2e2c960993df7a","secondPublicKey":"02bfef115c782b09bea58af7a5e9e89673c3d0135eeeb56612c8726d7238006108","balance":"20392587868068","isDelegate":false,"vote":"031c110968941f29c76f3752d5752d5541cfe65f23f5d7f9115d2f4eb194f41c47"},{"address":"Ad3VLzWRzC115CwyPaF3Ekn9zZA9RKpTio","publicKey":"022d6391aff0d586196e55df882e65eecc66e6eb46afde57c923e05c3a4b2e3498","balance":"20211051116188","isDelegate":false,"vote":"031c110968941f29c76f3752d5752d5541cfe65f23f5d7f9115d2f4eb194f41c47"},{"address":"APuWHb5KFPdfRXQ5jP2tdEnfUgjBHeRqkR","publicKey":"03946d1b1295a86358f5dc014aea9c355004f3b9ccb3e8c59aaaa34fe29ccad1f1","balance":"19974963334307","isDelegate":false,"vote":"032fcfd19f0e095bf46bd3ada87e283720c405249b1be1a70bad1d5f20095a8515"},{"address":"AJ2mwhJN4DUc2sL6GEzW4XUJHqcWxYeBN1","publicKey":"03e5752d3aa856aceaf8010672e45328482832695cb5cbe0da6a461a98f8da6e02","balance":"19359040980166","isDelegate":false,"vote":"026b87a3ad1c13adfc4256f5365f5e6251693a27b2293676db14690efce5acae6e"},{"address":"AKZY5vbZMrbrAcDgEWZX9LRNGcs3NnttcA","publicKey":"02acad44b7dd0ebe2928a055101d6cabd05b4e6ee5394f9fa823508c877b2f52db","secondPublicKey":"037d0150f69caa59842496573fb582910d460575e01039a0b437d8f2fa792057f2","balance":"19344351886574","isDelegate":false,"vote":"0371e0dabfd774b4f53fb9c5386a31ee4b3cb951529f18fdb5b8b7e21dbfb4b885"},{"address":"AVwK1aAfamjfHzSoVwPL3vUTVzWFgkbGhg","publicKey":"02477c1a0c53bd6b6f6b364f3b0d0ad68ba8c6b4daa65e71b010fc42574c4e7b3b","balance":"19211695422148","isDelegate":false,"vote":"0239e196716cb5242f0ba7ea25372fa22a8fab03cc1b5dd2575f0275cdefc0e957"},{"address":"AMKjBkupDpRpdEGayAKH5YHWRt3YXND1mC","publicKey":"02e639c8702bfa5cff1859f7eb4761ec9dbda9ed4fa6e55fc08e1c47f592dd8dbc","balance":"18912001749417","isDelegate":false,"vote":"02bf72c578a12c35a97ca1230b93017161ee42c3f0ab82f6fe7c95b3b43561a076"},{"address":"AXXs4nqNvG599juud2bV8Gg9kYpBcqYAfp","publicKey":"03f7f1f47a77d33428ec942998ab51d12cf37dbe441079978aeadbfd6ad1f24c13","balance":"18907796363294","isDelegate":false,"vote":"0273f311dce939562a92695583521b4782fdaf7c04f0a1d8643447adca76443111"},{"address":"ANXniAM4nATe3guh5BcwmJfCSdBH36YYGV","publicKey":"030a234fe308777c575f084d91bdf1e20e9420eb224059ac7abbc6958d4109117c","balance":"18729045755021","isDelegate":false,"vote":"02630c5942b003b2c4ec184862e4ac41578e0a79777da1332b384d3169f4d5eadd"},{"address":"AKA6fiPfWnKv35RfiegVSktrDLgJvno42g","publicKey":"03663f4d7f232d1f83200f7dd30b9d84353c85245789aeb1b985c9b81303d8224a","balance":"18694185575275","isDelegate":false},{"address":"ARs1ZTWVpvnizBxAt3tScPeZjcWcHd6oAm","publicKey":"022d1edb3dccf223ed65003d69145353bf8896ce7c9790691f4e1873fe41e33017","balance":"18530972707834","isDelegate":false,"vote":"02c2c8676d750814a4268124321e208dab1ee497d5498ca20e90416c68deada3cd"},{"address":"AbuTweMv2UBFfAnTCzFGB4cMzw32bnFo4x","publicKey":"03f468b3604f38a0bcad7508737c4b21c597a51a46c0f044530c4caba07cca5ffc","balance":"18441986310419","isDelegate":false,"vote":"03d768065bfd4dc8004e8cb37d092993617bcc09dc6d10931d57bff451f72d2b00"},{"address":"ASJXfHTeX9sPpgwJwDqJrUv64wiH84mjDj","publicKey":"03b94d5c051650aa243a598a541ce083698111bfcebdd5ca7b407823cd7fa5add8","balance":"18249073791644","isDelegate":false,"vote":"03242784474bc911c482861d18d5974c2c79ed61f931982e1ce42e3e3994559e41"},{"address":"AeF5Q9iXTswau14oJFpgQe4xH4grhRs6L2","publicKey":"027901b6ad4bcbe7f339888502fe08264175627f4ff6432dc3f6f0bda9e3dbf863","balance":"18214210005051","isDelegate":false,"vote":"03d055a2c45d8c57a174b36adf15c90dc5fbbfaa4a84ef3ee457dfc4fcd17aa279"},{"address":"AT6d8REtqvMLNuBDHsWfqiWYFuadeKytdy","publicKey":"028e14e5a780f93125b24f0a2b205a6582ce3f050278a025a34789aa5a0ffee74e","balance":"18211975397167","isDelegate":false},{"address":"APibSFManXRzd3zrJUDKnAnTqTrjFZaTzj","publicKey":"030af107084033b55efe52138b15f58433c1db56daf2df36bea9da85e431efb616","balance":"17673708209956","isDelegate":false,"vote":"02618fd3094afc436742a1e47dab922a1d8892ae791d1b426d125f6bd691634427"},{"address":"AVmQeSL9hTAC4ZVofb5wyooakMFh7Bm7ce","publicKey":"032d90f3f1853a06e2bc63f9c882686e1a18b34b3c2581a2cbc7457a0d8c44c97d","balance":"17504329665149","isDelegate":false,"vote":"0239e196716cb5242f0ba7ea25372fa22a8fab03cc1b5dd2575f0275cdefc0e957"},{"address":"ARC4vV9QH9cH4GqDJxRA9HUUFLKbFVfw1M","publicKey":"02d6a33788ed47559b26ab389294eaaf4be90832e18872005757f428cf0853dde2","balance":"17450099947770","isDelegate":false,"vote":"02c2c8676d750814a4268124321e208dab1ee497d5498ca20e90416c68deada3cd"},{"address":"AXtFib8xuiPiHz78Ri1UGNdvBxT8HreipL","publicKey":"02d9b9761d5defdbce580cb6d98df20695bd2cf9e8654ac9b3edbc1aa3719f8645","balance":"17330580414776","isDelegate":false,"vote":"021f277f1e7a48c88f9c02988f06ca63d6f1781471f78dba49d58bab85eb3964c6"},{"address":"Af1e7oavXTJs1RYs7DeRuphC6eSAUFpsWC","publicKey":"02a589e02e853bb5b9c989b2935a63eab88d847addb35bcbd838597a7623ba5748","balance":"17238640845406","isDelegate":false,"vote":"03c5d32dedf5441b3aafb2e0c6ad3e5568bb0b3e822807b133e2276e014d830e3c"},{"address":"Adr4g5cThwNnzxXz4TW5hFK189KHS4WfkW","publicKey":"02c5ca3c0aa3001d3e7c388a68149439deedf6c272c925b922c1505858ce48c5bc","balance":"16971381264059","isDelegate":false,"vote":"03c28f0c9d56bb30976830e75cce59b908fa1d2489d30a7e8ad494573deae23c20"},{"address":"AQ8Rb5DAPqQ6oBZts3LrqZzYcfubbUHgbJ","publicKey":"037cdcb68aab2c2e754edacc6f3f6547d01fc27205bf2b24a5390824f2bcdfe154","balance":"16839968937394","isDelegate":false,"vote":"02cb1d8264067c5955b4419ecebc8f70df24577a4b19b81298dbdcbdb19107a130"},{"address":"AV7LkWYGVqrNSLn63YdMa9nQQB98R4Ar3y","publicKey":"021840ad849ec12d577e20349152be2fb46a04413f0ef43198e810721046e631e7","username":"manhue","balance":"16635603493885","isDelegate":true,"vote":"031c110968941f29c76f3752d5752d5541cfe65f23f5d7f9115d2f4eb194f41c47"},{"address":"ASQt1ArJ36Q2UpTCGsJCaobWBNQhneTKWX","publicKey":"03116f3d640f657bb88a6d65c3684e6ddcea70ef1eaccefce4e594796f612d73bd","balance":"16484872522112","isDelegate":false,"vote":"02b02cae6c53adcbbe2b88e3f21fff9e3ceb8c2f028fdfaecff9d393696eaa3d07"},{"address":"AarLSpx5pkiKqPwN4y5NwVddADhqeNdfFL","publicKey":"02d9dfc8f12acad2d239ea474c3dc231e58740909ffce1c84dc88e8fcfd73beb85","balance":"16471832367366","isDelegate":false,"vote":"027c550ecc71e4d9b832cf83c1c5c4d7c22dc43e3a451fea887c82a6ef55bf52fa"},{"address":"ASETZRbWzc5w8B2rcyUbY3fED1BgQCKSJs","publicKey":"034a0e6f0644b0c608b85add95fba55914f05f7dd30e447db371040765a853375e","balance":"16242450470379","isDelegate":false,"vote":"026b87a3ad1c13adfc4256f5365f5e6251693a27b2293676db14690efce5acae6e"}]}